{
  "page": 1,
  "total_results": 3961,
  "total_pages": 199,
  "results": [
    {
      "popularity": 22.775,
      "vote_count": 5230,
      "video": false,
      "poster": "https://image.tmdb.org/t/p/w185/6aXMusULuKFAK0ZRUlv7RJ9zHTc.jpg",
      "id": 10144,
      "adult": false,
      "backdrop_path": "/4w2uPtIo0lFSnQnWg0zVAqPJCLP.jpg",
      "original_language": "en",
      "original_title": "The Little Mermaid",
      "genre_ids": [16, 14, 10751],
      "title": "The Little Mermaid",
      "vote_average": 7.3,
      "overview": "This colorful adventure tells the story of an impetuous mermaid princess named Ariel who falls in love with the very human Prince Eric and puts everything on the line for the chance to be with him. Memorable songs and characters -- including the villainous sea witch Ursula.",
      "release_date": "1989-11-17"
    },
    {
      "popularity": 22.564,
      "vote_count": 2135,
      "video": false,
      "poster": "https://image.tmdb.org/t/p/w185/7nO5DUMnGUuXrA4r2h6ESOKQRrx.jpg",
      "id": 16859,
      "adult": false,
      "backdrop_path": "/h5pAEVma835u8xoE60kmLVopLct.jpg",
      "original_language": "ja",
      "original_title": "魔女の宅急便",
      "genre_ids": [12, 16, 18, 14, 10751],
      "title": "Kiki's Delivery Service",
      "vote_average": 7.8,
      "overview": "A young witch, on her mandatory year of independent life, finds fitting into a new community difficult while she supports herself by running an air courier service.",
      "release_date": "1989-07-29"
    },
    {
      "popularity": 21.019,
      "vote_count": 4776,
      "video": false,
      "poster": "https://image.tmdb.org/t/p/w185/tDexQyu6FWltcd0VhEDK7uib42f.jpg",
      "id": 268,
      "adult": false,
      "backdrop_path": "/rBN6GPKUDZ6ZKAQiEZegZ0DZb6V.jpg",
      "original_language": "en",
      "original_title": "Batman",
      "genre_ids": [28, 14],
      "title": "Batman",
      "vote_average": 7.2,
      "overview": "The Dark Knight of Gotham City begins his war on crime with his first major enemy being the clownishly homicidal Joker, who has seized control of Gotham's underworld.",
      "release_date": "1989-06-23"
    },
    {
      "popularity": 19.967,
      "vote_count": 6516,
      "video": false,
      "poster": "https://image.tmdb.org/t/p/w185/sizg1AU8f8JDZX4QIgE4pjUMBvx.jpg",
      "id": 89,
      "adult": false,
      "backdrop_path": "/267Mdb5i1AXuVN64DhVEOUPmM25.jpg",
      "original_language": "en",
      "original_title": "Indiana Jones and the Last Crusade",
      "genre_ids": [28, 12],
      "title": "Indiana Jones and the Last Crusade",
      "vote_average": 7.8,
      "overview": "When Dr. Henry Jones Sr. suddenly goes missing while pursuing the Holy Grail, eminent archaeologist Indiana must team up with Marcus Brody, Sallah and Elsa Schneider to follow in his father's footsteps and stop the Nazis from recovering the power of eternal life.",
      "release_date": "1989-05-24"
    },
    {
      "popularity": 18.373,
      "vote_count": 2592,
      "video": false,
      "poster": "https://image.tmdb.org/t/p/w185/yObYPMA58DnTMvJooFW7GG6jWAt.jpg",
      "id": 2978,
      "adult": false,
      "backdrop_path": "/Ae4j8Y6EnjtPJxnIVmLMzcARZ7T.jpg",
      "original_language": "en",
      "original_title": "Ghostbusters II",
      "genre_ids": [35, 14],
      "title": "Ghostbusters II",
      "vote_average": 6.4,
      "overview": "Five years after they defeated Gozer, the Ghostbusters are out of business. When Dana begins to have ghost problems again, the boys come out of retirement to aid her and hopefully save New York City from a new paranormal threat.",
      "release_date": "1989-06-16"
    },
    {
      "popularity": 17.867,
      "vote_count": 1346,
      "video": false,
      "poster": "https://image.tmdb.org/t/p/w185/dm2KpvwzfyPduUK1yBATxPveSgd.jpg",
      "id": 5825,
      "adult": false,
      "backdrop_path": "/8TNf3mbv4Wv9t6KMkxLUkCrB6SJ.jpg",
      "original_language": "en",
      "original_title": "National Lampoon's Christmas Vacation",
      "genre_ids": [35],
      "title": "National Lampoon's Christmas Vacation",
      "vote_average": 7.2,
      "overview": "It's Christmas time and the Griswolds are preparing for a family seasonal celebration, but things never run smoothly for Clark, his wife Ellen and their two kids. Clark's continual bad luck is worsened by his obnoxious family guests, but he manages to keep going knowing that his Christmas bonus is due soon.",
      "release_date": "1989-12-01"
    },
    {
      "popularity": 17.749,
      "vote_count": 127,
      "video": false,
      "poster": "https://image.tmdb.org/t/p/w185/ffeMIkyoDDOZ4EsThRbMTNfAfvv.jpg",
      "id": 5203,
      "adult": false,
      "backdrop_path": "/ehqG6O1qwyajmx2ZtCjrwmIlFSe.jpg",
      "original_language": "en",
      "original_title": "Wild Orchid",
      "genre_ids": [18, 10749],
      "title": "Wild Orchid",
      "vote_average": 4.8,
      "overview": "A woman lawyer becomes mesmerized by a self-made millionaire during an encounter in Rio setting off a series of erotic encounters.",
      "release_date": "1989-12-22"
    },
    {
      "popularity": 17.016,
      "id": 207,
      "video": false,
      "vote_count": 7201,
      "vote_average": 8.3,
      "title": "Dead Poets Society",
      "release_date": "1989-06-02",
      "original_language": "en",
      "original_title": "Dead Poets Society",
      "genre_ids": [18],
      "backdrop_path": "/tJRToZBfb52NhF6SMGAe0bWQc6z.jpg",
      "adult": false,
      "overview": "At an elite, old-fashioned boarding school in New England, a passionate English teacher inspires his students to rebel against convention and seize the potential of every day, courting the disdain of the stern headmaster.",
      "poster": "https://image.tmdb.org/t/p/w185/ai40gM7SUaGA6fthvsd87o8IQq4.jpg"
    },
    {
      "popularity": 16.256,
      "vote_count": 672,
      "video": false,
      "poster": "https://image.tmdb.org/t/p/w185/kizvpgXQfrAgN8FhOd87LbKk6kO.jpg",
      "id": 10160,
      "adult": false,
      "backdrop_path": "/yNqhMQUDfXGKWYI6Hw6HARBCrbn.jpg",
      "original_language": "en",
      "original_title": "A Nightmare on Elm Street: The Dream Child",
      "genre_ids": [27, 53],
      "title": "A Nightmare on Elm Street: The Dream Child",
      "vote_average": 5.4,
      "overview": "Alice, having survived the previous installment of the Nightmare series, finds the deadly dreams of Freddy Krueger starting once again. This time, the taunting murderer is striking through the sleeping mind of Alice's unborn child. His intention is to be \"born again\" into the real world. The only one who can stop Freddy is his dead mother, but can Alice free her spirit in time to save her own son?",
      "release_date": "1989-08-11"
    },
    {
      "popularity": 15.822,
      "id": 10283,
      "video": false,
      "vote_count": 511,
      "vote_average": 4.8,
      "title": "Friday the 13th Part VIII: Jason Takes Manhattan",
      "release_date": "1989-07-28",
      "original_language": "en",
      "original_title": "Friday the 13th Part VIII: Jason Takes Manhattan",
      "genre_ids": [27, 53],
      "backdrop_path": "/4XmL78nsM1XF3yLjne8QJSGQKYd.jpg",
      "adult": false,
      "overview": "A group of students on a graduation cruise bound for Manhattan soon realize they've got a stowaway aboard the ship: serial killer Jason Voorhees.",
      "poster": "https://image.tmdb.org/t/p/w185/s5U5JgPpgfTnbGxQF2bOlfqqz5b.jpg"
    },
    {
      "popularity": 15.766,
      "vote_count": 307,
      "video": false,
      "poster": "https://image.tmdb.org/t/p/w185/ywtyEDTM2YO7qod7USNNwhrAfvA.jpg",
      "id": 28609,
      "adult": false,
      "backdrop_path": "/4dmEpmTdXJffmD0FM90WNY3vd3C.jpg",
      "original_language": "ja",
      "original_title": "ドラゴンボールＺ オラの悟飯をかえせッ!!",
      "genre_ids": [28, 16],
      "title": "Dragon Ball Z: Dead Zone",
      "vote_average": 6.5,
      "overview": "Gohan has been kidnapped! To make matters worse, the evil Garlic Jr. is gathering the Dragonballs to wish for immortality. Only then will Garlic Jr. be able to take over the Earth in order to gain revenge for the death of his father. Goku rushes to save Gohan, but arrives at the fortress just as Garlic Jr. summons the Eternal Dragon! Krillin and Piccolo try to help Goku, but their combined powers.",
      "release_date": "1989-07-15"
    },
    {
      "popularity": 15.666,
      "vote_count": 1119,
      "video": false,
      "poster": "https://image.tmdb.org/t/p/w185/6NIOOBHp59uEcyHVG0Du6TumOpY.jpg",
      "id": 709,
      "adult": false,
      "backdrop_path": "/p6VFbg5lhWj0RCgXf5dj6IDMPvt.jpg",
      "original_language": "en",
      "original_title": "Licence to Kill",
      "genre_ids": [28, 12, 53],
      "title": "Licence to Kill",
      "vote_average": 6.2,
      "overview": "When drug lord Franz Sanchez exacts his brutal vengeance on Bond's friend Felix Leiter, 007 resigns from the British Secret Service and begins a fierce vendetta against the master criminal. Bond won't be satisfied until Sanchez is defeated, and to accomplish this aim he allies himself with a beautiful pilot and Sanchez's sexy girlfriend.",
      "release_date": "1989-07-07"
    },
    {
      "popularity": 15.582,
      "id": 11937,
      "video": false,
      "vote_count": 227,
      "vote_average": 6.7,
      "title": "The Gods Must Be Crazy II",
      "release_date": "1989-07-01",
      "original_language": "en",
      "original_title": "The Gods Must Be Crazy II",
      "genre_ids": [28, 35],
      "backdrop_path": "/5uPkelrceuONns4bSiA12cKh0iC.jpg",
      "adult": false,
      "overview": "Xixo is back again. This time, his children accidentally stow away on a fast-moving poachers' truck, unable to get off, and Xixo sets out to rescue them. Along the way, he encounters a couple of soldiers trying to capture each other and a pilot and passenger of a small plane, who are each having a few problems of their own.",
      "poster": "https://image.tmdb.org/t/p/w185/ldb5M9LOawvaqvY7NSfsB66QLki.jpg"
    },
    {
      "popularity": 15.244,
      "vote_count": 699,
      "video": false,
      "poster": "https://image.tmdb.org/t/p/w185/71YocT3lTRVpippznEMThfFoQcx.jpg",
      "id": 172,
      "adult": false,
      "backdrop_path": "/A54JlhiGcfRCamefa7UIam7MmUF.jpg",
      "original_language": "en",
      "original_title": "Star Trek V: The Final Frontier",
      "genre_ids": [28, 12, 878, 53],
      "title": "Star Trek V: The Final Frontier",
      "vote_average": 5.7,
      "overview": "Capt. Kirk and his crew must deal with Mr. Spock's half brother who kidnaps three diplomats and hijacks the Enterprise in his obsessive search for God.",
      "release_date": "1989-06-09"
    },
    {
      "popularity": 15.001,
      "id": 2756,
      "video": false,
      "vote_count": 1669,
      "vote_average": 7.3,
      "title": "The Abyss",
      "release_date": "1989-08-09",
      "original_language": "en",
      "original_title": "The Abyss",
      "genre_ids": [12, 28, 53, 878],
      "backdrop_path": "/aPB3jFuMSoNFk2uDZ5tX5CIGaSX.jpg",
      "adult": false,
      "overview": "A civilian oil rig crew is recruited to conduct a search and rescue effort when a nuclear submarine mysteriously sinks. One diver soon finds himself on a spectacular odyssey 25,000 feet below the ocean's surface where he confronts a mysterious force that has the power to change the world or destroy it.",
      "poster": "https://image.tmdb.org/t/p/w185/jel2BuDv7Bq4fuv2pUrTfiBm69o.jpg"
    },
    {
      "popularity": 14.892,
      "id": 9618,
      "video": false,
      "vote_count": 1085,
      "vote_average": 6.3,
      "title": "Tango & Cash",
      "release_date": "1989-12-22",
      "original_language": "en",
      "original_title": "Tango & Cash",
      "genre_ids": [28, 12, 35],
      "backdrop_path": "/8NPs9xKPO5Or77wVfbRU6Ja2rfe.jpg",
      "adult": false,
      "overview": "Ray Tango and Gabriel Cash are narcotics detectives who, while both being extremely successful, can't stand each other. Crime Lord Yves Perret, furious at the loss of income that Tango and Cash have caused him, frames the two for murder. Caught with the murder weapon on the scene of the crime, the two have no alibi. Thrown into prison with most of the criminals they helped convict, it appears that they are going to have to trust each other if they are to clear their names and catch the evil Perret.",
      "poster": "https://image.tmdb.org/t/p/w185/bLTBlfV0sJwrwwLJW4JgHwgHrJJ.jpg"
    },
    {
      "popularity": 14.456,
      "vote_count": 216,
      "video": false,
      "poster": "https://image.tmdb.org/t/p/w185/5jeOfvBFpRmsw4xEfmNlqJ2oukT.jpg",
      "id": 19124,
      "adult": false,
      "backdrop_path": "/fa8kC5StEx4Ne78McOMEwlzyDnS.jpg",
      "original_language": "en",
      "original_title": "Blind Fury",
      "genre_ids": [28, 53],
      "title": "Blind Fury",
      "vote_average": 6.4,
      "overview": "A blind Vietnam vet, trained as a swordfighter, comes to America and helps to rescue the son of a fellow soldier.",
      "release_date": "1989-08-17"
    },
    {
      "popularity": 14.232,
      "vote_count": 221,
      "video": false,
      "poster": "https://image.tmdb.org/t/p/w185/jWYAXtdYF804aT1muO0G6FuR2Fa.jpg",
      "id": 11157,
      "adult": false,
      "backdrop_path": "/z8bqlI8oeWN4WRAoGKA0d8ykhHJ.jpg",
      "original_language": "en",
      "original_title": "She-Devil",
      "genre_ids": [35],
      "title": "She-Devil",
      "vote_average": 5.8,
      "overview": "A cunning and resourceful housewife vows revenge on her husband when he begins an affair with a wealthy romance novelist.",
      "release_date": "1989-12-08"
    },
    {
      "popularity": 14.007,
      "vote_count": 2126,
      "video": false,
      "poster": "https://image.tmdb.org/t/p/w185/4fAIXbbEe1YpcJYuOBEFTa0JiGP.jpg",
      "id": 942,
      "adult": false,
      "backdrop_path": "/sb7H2SSUKA8Wk441HIHTQXsoy2e.jpg",
      "original_language": "en",
      "original_title": "Lethal Weapon 2",
      "genre_ids": [28, 12, 35, 80, 53],
      "title": "Lethal Weapon 2",
      "vote_average": 6.9,
      "overview": "In the opening chase, Martin Riggs and Roger Murtaugh stumble across a trunk full of Krugerrands. They follow the trail to a South African diplomat who's using his immunity to conceal a smuggling operation. When he plants a bomb under Murtaugh's toilet, the action explodes!",
      "release_date": "1989-07-07"
    },
    {
      "popularity": 13.986,
      "vote_count": 2463,
      "video": false,
      "poster": "https://image.tmdb.org/t/p/w185/3wkbKeowUp1Zpkw1KkBqMWbt0P9.jpg",
      "id": 639,
      "adult": false,
      "backdrop_path": "/xd5SYDUhNVGLUeK2epbEjnVBpPN.jpg",
      "original_language": "en",
      "original_title": "When Harry Met Sally...",
      "genre_ids": [35, 18, 10749],
      "title": "When Harry Met Sally...",
      "vote_average": 7.4,
      "overview": "During their travel from Chicago to New York, Harry and Sally debate whether or not sex ruins a friendship between a man and a woman. Eleven years later, and they're still no closer to finding the answer.",
      "release_date": "1989-01-12"
    }
  ]
}
